Top-100 Vintage NBA Seasons with {reactable}
…
## Warning: `funs()` is deprecated as of dplyr 0.8.0.
## Please use a list of either functions or lambdas: 
## 
##   # Simple named list: 
##   list(mean = mean, median = median)
## 
##   # Auto named with `tibble::lst()`: 
##   tibble::lst(mean, median)
## 
##   # Using lambdas
##   list(~ mean(., trim = .2), ~ median(., na.rm = TRUE))
## This warning is displayed once every 8 hours.
## Call `lifecycle::last_warnings()` to see where this warning was generated.

## # A tibble: 100 x 8
##    NAME           SEASON MIN_PLAYED   OFF   DEF TOTAL   WAR PLAYOFF_WAR
##    <chr>           <dbl>      <dbl> <dbl> <dbl> <dbl> <dbl>       <dbl>
##  1 Michael Jordan   1991       3723   9.1   3.2  12.3  28.8         6  
##  2 LeBron James     2009       3634   9.3   3.2  12.6  28.5         5.7
##  3 Michael Jordan   1989       3973   8.3   2.7  11    28           4.9
##  4 Michael Jordan   1990       3871   8.6   2.2  10.8  27           5.3
##  5 Stephen Curry    2016       3314  10.4   2.1  12.5  26.7         3  
##  6 Michael Jordan   1988       3738   7.5   3.7  11.2  26.6         2.3
##  7 Michael Jordan   1993       3850   7.6   2.8  10.4  26           5.7
##  8 Michael Jordan   1992       4022   7     2.7   9.6  25.5         5.4
##  9 Michael Jordan   1996       3823   7.6   2.7  10.3  25.5         4.5
## 10 Stephen Curry    2015       3439   8.6   2.4  11    25.1         5.2
## #  with 90 more rows
…
